బట్టలు
బట్టలు	బట్ట	NN	0	n		pl		d
చవకగా	చవక	RB	గా	adj				
బరువుగా	బరువు	RB	గా	adj				
కష్టంగా	కష్టం	RB	గా	n		sg		
బరువుగా	బరువు	RB	గా	adj				
మామూలుగా	మామూలు	RB	గా	n		sg		
1
ఎటువంటి మోటలు మోసి ఆ గాడిద అలిసిపోతూ వుండేది
రోజంతా బరువైన మోటలు మోసి ఆ గాడిద అలిసిపోతూ వుండేది
2
ఎటువంటి మోట తో వంగడం కష్టంగా వుంది
అంత పెద్ద మోట తో వంగడం కష్టంగా వుంది
3
చెప్పులు , బట్టలు , గాజులు , పళ్ళు , గిన్నెలు – బజారులో ఎలా కొని , ఊళ్ళో ఇంటింటికి వెళ్లి అమ్ముకునే వాడు
చెప్పులు , బట్టలు , గాజులు , పళ్ళు , గిన్నెలు – బజారులో చవకగా కొని , ఊళ్ళో ఇంటింటికి వెళ్లి అమ్ముకునే వాడు
4
ఉప్పు మూటలు మామూలుగా కన్నా ఎక్కువ ఎలా వున్నాయి
ఉప్పు మూటలు మామూలుగా కన్నా ఎక్కువ బరువుగా వున్నాయి
5
అంత పెద్ద మోట తో వంగడం ఎలా వుంది
అంత పెద్ద మోట తో వంగడం కష్టంగా వుంది
6
ఇక పైన ఎప్పుడైనా మోట ఎలా అనిపిస్తే మళ్ళీ నీళ్ళల్లో దుంక వచ్చు అని నిశ్చయించుకుంది
ఇక పైన ఎప్పుడైనా మోట బరువుగా అనిపిస్తే మళ్ళీ నీళ్ళల్లో దుంక వచ్చు అని నిశ్చయించుకుంది
7
ఈ రోజైనా మంచి లాభం సంపాదించాలి ” అనుకుంటూ విక్రేత ఎలా కొనే సరుకు కన్నా ఎక్కువ కొన్నాడు
ఈ రోజైనా మంచి లాభం సంపాదించాలి ” అనుకుంటూ విక్రేత మామూలుగా కొనే సరుకు కన్నా ఎక్కువ కొన్నాడు
8
సామాన్లన్నీ మోట కట్టి , గాడిద మీద వేసి , బజారు నుంచి ఊళ్ళో , ఊళ్లోనుంచి తిరిగి ఎవరి ఇంటికి తిప్పేవాడు
సామాన్లన్నీ మోట కట్టి , గాడిద మీద వేసి , బజారు నుంచి ఊళ్ళో , ఊళ్లోనుంచి తిరిగి అతని ఇంటికి తిప్పేవాడు
